[
	{
		"title": "Queso triangulo",
		"price": "1232",
		"thumbnail": "https://static.cotodigital3.com.ar/sitios/fotos/medium/00011100/00011186.jpg?3.0.131l",
		"id": 1
	},
	{
		"title": "Queso Brie",
		"price": "34400",
		"thumbnail": "https://static.cotodigital3.com.ar/sitios/fotos/medium/00462100/00462153.jpg?3.0.131l",
		"id": 2
	},
	{
		"title": "boconcino",
		"price": "344",
		"thumbnail": "https://static.cotodigital3.com.ar/sitios/fotos/medium/00215600/00215635.jpg?3.0.131l",
		"id": 3
	},
	{
		"title": "Burrata",
		"price": "1300",
		"thumbnail": "https://static.cotodigital3.com.ar/sitios/fotos/full/00267700/00267704.jpg?3.0.131l",
		"id": 4
	},
	{
		"title": "Brie Piedras",
		"price": "12332",
		"thumbnail": "https://static.cotodigital3.com.ar/sitios/fotos/full/00046800/00046844.jpg?3.0.131l",
		"id": 5
	}
]